{
    "RUNTIMES": {
        "PLC1": {
            "ENABLED": true,
            "NETID": "5.105.198.99.1.1",
            "PORT": 851,
            "SYMBOLS": {},
            "USE_WHITELISTING": false
        }
    }
}